%YAML 1.1
%TAG !u! tag:unity3d.com,2011:
--- !u!114 &11400000
MonoBehaviour:
  m_ObjectHideFlags: 0
  m_CorrespondingSourceObject: {fileID: 0}
  m_PrefabInstance: {fileID: 0}
  m_PrefabAsset: {fileID: 0}
  m_GameObject: {fileID: 0}
  m_Enabled: 1
  m_EditorHideFlags: 0
  m_Script: {fileID: 11500000, guid: 95e66c6366d904e98bc83428217d4fd7, type: 3}
  m_Name: CapsuleMovement
  m_EditorClassIdentifier: 
  _data:
    _json: '{"graph":{"variables":{"Kind":"Flow","collection":{"$content":[],"$version":"A"},"$version":"A"},"controlInputDefinitions":[],"controlOutputDefinitions":[],"valueInputDefinitions":[],"valueOutputDefinitions":[],"title":"FpsController","summary":null,"pan":{"x":54.99306,"y":-19.02376},"zoom":1.0,"elements":[{"coroutine":false,"defaultValues":{},"position":{"x":-568.0,"y":-166.0},"guid":"7b27e907-b597-460e-b292-6475e1aeb437","$version":"A","$type":"Unity.VisualScripting.Update","$id":"9"},{"specifyFallback":false,"kind":"Object","defaultValues":{"name":{"$content":"MoveAxis","$type":"System.String"},"object":null},"position":{"x":-592.0,"y":42.0},"guid":"fa4b576e-75d0-4f8b-8c97-724057c32f90","$version":"A","$type":"Unity.VisualScripting.GetVariable","$id":"11"},{"chainable":false,"member":{"name":"ClampMagnitude","parameterTypes":["UnityEngine.Vector3","System.Single"],"targetType":"UnityEngine.Vector3","targetTypeName":"UnityEngine.Vector3","$version":"A"},"defaultValues":{"%vector":{"x":0.0,"y":0.0,"z":0.0,"$type":"UnityEngine.Vector3"},"%maxLength":{"$content":1.0,"$type":"System.Single"}},"position":{"x":-184.0,"y":-255.0},"guid":"7012410a-386c-48be-9a9e-438e28aa04fc","$version":"A","$type":"Unity.VisualScripting.InvokeMember","$id":"13"},{"specifyFallback":false,"kind":"Object","defaultValues":{"name":{"$content":"MoveSpeed","$type":"System.String"},"object":null},"position":{"x":-302.0,"y":25.0},"guid":"a0e83a11-0040-479d-bf9a-886c5677d6f2","$version":"A","$type":"Unity.VisualScripting.GetVariable","$id":"16"},{"chainable":false,"member":{"name":"Translate","parameterTypes":["UnityEngine.Vector3"],"targetType":"UnityEngine.Transform","targetTypeName":"UnityEngine.Transform","$version":"A"},"defaultValues":{"target":null,"%translation":{"x":0.0,"y":0.0,"z":0.0,"$type":"UnityEngine.Vector3"}},"position":{"x":378.0,"y":-174.0},"guid":"7bbc7a88-8a2c-4171-af65-a6d39abcccce","$version":"A","$type":"Unity.VisualScripting.InvokeMember","$id":"18"},{"defaultValues":{},"position":{"x":118.0,"y":-2.0},"guid":"44f41c87-2ffe-4674-98ea-6bc0e53cddcd","$version":"A","$type":"Unity.VisualScripting.GenericMultiply","$id":"21"},{"defaultValues":{},"position":{"x":-81.0,"y":147.0},"guid":"4116d341-1d65-4481-9c1f-275333465c70","$version":"A","$type":"Unity.VisualScripting.GenericMultiply","$id":"23"},{"member":{"name":"deltaTime","parameterTypes":null,"targetType":"UnityEngine.Time","targetTypeName":"UnityEngine.Time","$version":"A"},"defaultValues":{},"position":{"x":-411.0,"y":169.0},"guid":"8eb03e6c-75f1-47e8-8ad4-cc7a625d5d61","$version":"A","$type":"Unity.VisualScripting.GetMember","$id":"25"},{"sourceUnit":{"$ref":"9"},"sourceKey":"trigger","destinationUnit":{"$ref":"13"},"destinationKey":"enter","guid":"2b15a815-56fa-4157-bb22-fac113bc4f4d","$type":"Unity.VisualScripting.ControlConnection"},{"sourceUnit":{"$ref":"13"},"sourceKey":"exit","destinationUnit":{"$ref":"18"},"destinationKey":"enter","guid":"a6b1f714-f0c8-44d8-adff-9f9b4bfcb9f6","$type":"Unity.VisualScripting.ControlConnection"},{"sourceUnit":{"$ref":"11"},"sourceKey":"value","destinationUnit":{"$ref":"13"},"destinationKey":"%vector","guid":"17b1c08c-be12-4895-9d91-8c98d952994b","$type":"Unity.VisualScripting.ValueConnection"},{"sourceUnit":{"$ref":"13"},"sourceKey":"result","destinationUnit":{"$ref":"21"},"destinationKey":"a","guid":"af2bc7ff-6556-40d2-b173-096605ea322a","$type":"Unity.VisualScripting.ValueConnection"},{"sourceUnit":{"$ref":"21"},"sourceKey":"product","destinationUnit":{"$ref":"18"},"destinationKey":"%translation","guid":"77222df1-3355-4f80-82c9-6f86863e3ab1","$type":"Unity.VisualScripting.ValueConnection"},{"sourceUnit":{"$ref":"16"},"sourceKey":"value","destinationUnit":{"$ref":"23"},"destinationKey":"a","guid":"60892e02-d876-44ae-af9b-a4b291f55d11","$type":"Unity.VisualScripting.ValueConnection"},{"sourceUnit":{"$ref":"25"},"sourceKey":"value","destinationUnit":{"$ref":"23"},"destinationKey":"b","guid":"4ef4472a-cfe9-406c-9ac3-23ee74090aff","$type":"Unity.VisualScripting.ValueConnection"},{"sourceUnit":{"$ref":"23"},"sourceKey":"product","destinationUnit":{"$ref":"21"},"destinationKey":"b","guid":"b714dd4e-0ddc-4a83-82fe-2ccdd6e9bb1c","$type":"Unity.VisualScripting.ValueConnection"}],"$version":"A"}}'
    _objectReferences: []
